<?xml version="1.0" encoding="UTF-8" standalone="no"?>
<svg
   xmlns:dc="http://purl.org/dc/elements/1.1/"
   xmlns:cc="http://creativecommons.org/ns#"
   xmlns:rdf="http://www.w3.org/1999/02/22-rdf-syntax-ns#"
   xmlns:svg="http://www.w3.org/2000/svg"
   xmlns="http://www.w3.org/2000/svg"
   xmlns:sodipodi="http://sodipodi.sourceforge.net/DTD/sodipodi-0.dtd"
   xmlns:inkscape="http://www.inkscape.org/namespaces/inkscape"
   inkscape:export-ydpi="400.47733"
   inkscape:export-xdpi="400.47733"
   inkscape:export-filename="C:\Docs\Code\Haskell\MetaBrush\assets\icon.png"
   sodipodi:docname="icon.svg"
   inkscape:version="1.0 (4035a4fb49, 2020-05-01)"
   id="svg2001"
   version="1.1"
   viewBox="0 0 8.1183118 8.1183119"
   height="8.1183119mm"
   width="8.1183119mm">
  <defs
     id="defs1995" />
  <sodipodi:namedview
     inkscape:document-rotation="0"
     inkscape:window-maximized="1"
     inkscape:window-y="115"
     inkscape:window-x="2552"
     inkscape:window-height="1377"
     inkscape:window-width="2560"
     fit-margin-bottom="0"
     fit-margin-right="0"
     fit-margin-left="0"
     fit-margin-top="0"
     showgrid="false"
     inkscape:current-layer="layer1"
     inkscape:document-units="mm"
     inkscape:cy="14.706192"
     inkscape:cx="17.749163"
     inkscape:zoom="22.627417"
     inkscape:pageshadow="2"
     inkscape:pageopacity="0.0"
     borderopacity="1.0"
     bordercolor="#666666"
     pagecolor="#ffffff"
     id="base" />
  <metadata
     id="metadata1998">
    <rdf:RDF>
      <cc:Work
         rdf:about="">
        <dc:format>image/svg+xml</dc:format>
        <dc:type
           rdf:resource="http://purl.org/dc/dcmitype/StillImage" />
        <dc:title></dc:title>
      </cc:Work>
    </rdf:RDF>
  </metadata>
  <g
     id="layer1"
     inkscape:groupmode="layer"
     inkscape:label="Layer 1">
    <g
       style="opacity:1"
       transform="matrix(0.28976032,0,0,0.29020554,-0.37439856,-0.39303961)"
       id="g840">
      <path
         sodipodi:nodetypes="ssccccccccccssscssssccccccsczcccccsssscsscsscssccsssccccssssccccccscccccccccccccscccscccs"
         id="path842"
         d="m 17.328125,4.0644531 c -0.276011,0.021951 -0.546364,0.086216 -0.802734,0.1914063 -0.933838,0.3831611 -1.437758,1.1305969 -1.742188,1.7109375 -0.292508,0.5576626 -0.357648,1.1423044 -0.294922,1.6347656 0.01993,0.1564191 0.05313,0.1991552 0.08594,0.3242187 -0.170309,0.1139975 -0.400942,0.1369709 -0.525391,0.2910157 l -0.002,0.00195 -4.4746094,5.5937501 C 8.5392705,14.232519 7.6902737,14.582033 6.6796875,15.040736 6.4358328,15.154983 6.193246,15.442505 6.0488281,15.710938 l -1.0546875,1.939453 -2.4960937,4.597656 c -0.2929863,0.53961 -0.5665702,1.138959 -0.7695313,1.669922 -0.1014805,0.265481 -0.1854001,0.505287 -0.2460937,0.761719 -0.030347,0.128215 -0.059829,0.253771 -0.066406,0.455078 -0.00658,0.201306 -0.125024,0.606326 0.4667969,1.134765 0.3623561,0.323428 0.6595602,0.336684 0.8359375,0.34961 0.1763773,0.01292 0.2839355,-0.0031 0.3789062,-0.01758 0.1899415,-0.02902 0.3217001,-0.06877 0.4628907,-0.115234 0.2823811,-0.09293 0.573378,-0.21606 0.8828125,-0.363281 0.6188689,-0.294443 1.2469292,-0.616492 1.796875,-1.134766 l -0.09375,0.08008 5.7617183,-4.488281 c 0.41702,-0.3567 0.321761,-0.227226 0.699217,-0.683546 0.534753,-0.633395 0.781249,-3.535157 0.781249,-3.535157 l 1.351562,-1.527344 c 0.222433,0.431597 0.351489,0.691327 0.585938,1.142578 0.302233,0.581718 0.591966,1.136002 0.814453,1.556641 0.306087,0.672437 0.966231,1.578399 1.244138,1.59375 0.277906,0.01535 0.921875,-0.302734 0.921875,-0.302734 1.128437,-0.566111 1.677032,-1.15971 2.208984,-1.792969 l 0.03125,-0.03711 0.02734,-0.03906 c 0.197789,-0.27363 0.356835,-0.476045 0.484375,-0.65039 0.553334,0.703129 1.019624,1.383164 1.623047,2.164062 0.323291,0.418383 0.855476,0.977612 1.484375,1.535156 0.314449,0.278772 0.634421,0.542497 0.996093,0.763672 0.180836,0.110588 0.370485,0.213228 0.628907,0.294922 0.258421,0.08169 0.63607,0.176768 1.132812,-0.01758 0.391673,-0.153404 0.496253,-0.274564 0.689453,-0.4375 0.193201,-0.162936 0.392276,-0.357285 0.591797,-0.589844 0.399042,-0.465118 0.823231,-1.066522 0.978516,-1.904297 0.03786,-0.20467 0.07193,-0.466024 0.08203,-0.810547 0.0051,-0.172261 0.0054,-0.353831 -0.0293,-0.583984 -0.03464,-0.229798 -0.01564,-0.562662 -0.509766,-1.009766 -0.568315,-0.513734 -0.953162,-0.368273 -1.138671,-0.345703 -0.18551,0.02257 -0.287818,0.05538 -0.386719,0.08594 -0.08428,0.02604 -0.142745,0.05015 -0.214844,0.07617 -0.419479,-0.732781 -0.876165,-1.587367 -1.373047,-2.419922 -0.438852,-0.79467 -0.8559,-1.747805 -1.326172,-2.552735 C 24.051974,10.150269 23.828089,9.7737725 23.396484,9.4160156 23.180682,9.2371372 22.887417,9.0515122 22.484375,8.9824219 22.081333,8.9133315 21.604416,9.018454 21.277344,9.21875 c -0.762967,0.4672646 -1.193204,1.048317 -1.357422,1.287109 -0.164574,0.239319 -0.407672,0.58018 -0.546875,0.783203 -0.177039,-0.376681 -0.463888,-0.751028 -0.6875,-1.144531 0.371343,-0.09474 0.768387,-0.1942803 1.128906,-0.5332029 C 20.449658,9.0141755 21.004385,8.1641534 20.947266,7.1308594 20.890812,6.109614 20.270101,5.3436254 19.623047,4.8339844 18.953905,4.3069477 18.15217,3.9989158 17.328125,4.0644531 Z m -1.646484,6.3652349 0.169921,0.130859 c 0.734803,0.884884 1.176023,2.430871 2.246094,4.033203 l 0.4375,0.654297 c -0.02124,0.02936 -0.03797,0.04885 -0.06055,0.08008 -0.137888,0.164374 -0.25792,0.180361 -0.341797,0.28125 C 17.983292,15.323783 17.8509,15.07398 17.683591,14.751955 17.082907,13.5958 16.426653,12.318274 16.18945,11.843752 l -0.630859,-1.261719 z m 6.396484,1.623046 c 0.327676,0.587089 0.724642,1.45731 1.210937,2.337891 l 0.01172,0.01953 0.01172,0.02149 c 0.313307,0.521765 0.72167,1.237588 1.099609,1.927734 -0.978216,-1.244152 -2.03376,-2.532534 -2.177734,-2.830078 l -0.486328,-1.003906 c 0.0844,-0.123277 0.235525,-0.335069 0.330078,-0.472657 z m -11.353516,4.158204 -0.220703,1.4375 C 9.9975333,17.398087 9.4525595,17.07354 9.1777344,16.896484 c -0.00404,-0.0026 -0.029207,-0.03254 -0.035156,-0.03711 z m -4.2011715,4.189453 c 0.1392383,0.105349 0.2637243,0.217795 0.4082031,0.316406 0.087677,0.05984 0.2049184,0.08552 0.2949219,0.144531 l -1.6503906,1.285156 z"
         style="color:#000000;font-style:normal;font-variant:normal;font-weight:normal;font-stretch:normal;font-size:medium;line-height:normal;font-family:sans-serif;font-variant-ligatures:normal;font-variant-position:normal;font-variant-caps:normal;font-variant-numeric:normal;font-variant-alternates:normal;font-variant-east-asian:normal;font-feature-settings:normal;font-variation-settings:normal;text-indent:0;text-align:start;text-decoration:none;text-decoration-line:none;text-decoration-style:solid;text-decoration-color:#000000;letter-spacing:normal;word-spacing:normal;text-transform:none;writing-mode:lr-tb;direction:ltr;text-orientation:mixed;dominant-baseline:auto;baseline-shift:baseline;text-anchor:start;white-space:normal;shape-padding:0;shape-margin:0;inline-size:0;clip-rule:nonzero;display:inline;overflow:visible;visibility:visible;isolation:auto;mix-blend-mode:normal;color-interpolation:sRGB;color-interpolation-filters:linearRGB;solid-color:#000000;solid-opacity:1;vector-effect:none;fill:#ffffff;fill-opacity:1;fill-rule:nonzero;stroke:none;stroke-width:2.656;stroke-linecap:butt;stroke-linejoin:miter;stroke-miterlimit:4;stroke-dasharray:none;stroke-dashoffset:0;stroke-opacity:1;paint-order:stroke fill markers;color-rendering:auto;image-rendering:auto;shape-rendering:auto;text-rendering:auto;enable-background:accumulate;stop-color:#000000;stop-opacity:1" />
      <path
         id="path844"
         d="m 17.433594,5.3886719 c -0.14133,0.01124 -0.277792,0.043797 -0.404297,0.095703 -0.506021,0.2076246 -0.835255,0.6515139 -1.070313,1.0996094 -0.154824,0.2951697 -0.1866,0.5959906 -0.154296,0.8496094 0.03231,0.2536176 0.113395,0.4558703 0.177734,0.6347656 C 16.097869,8.3893728 16.172217,8.6042807 16,8.9980469 L 15.95703,8.9648439 C 15.816432,8.8443525 15.65638,8.7949753 15.501952,8.810547 15.347483,8.826043 15.198364,8.906781 15.08203,9.0507813 l -4.6875,5.8593747 -3.160156,1.298828 c -0.3056504,0.20897 0.5854195,1.392878 1.2246094,1.804688 0.6391899,0.411798 2.4207676,1.486426 3.1347656,1.289062 l 0.541016,-3.529296 1.857422,-2.095704 1.009765,-1.240234 c 0.497492,0.995229 2.609107,5.07437 2.708985,5.199219 1.011057,-0.507224 1.243069,-0.811336 1.787109,-1.458985 0.621838,-0.860277 0.702796,-0.970341 1.541015,-2.070312 0.388596,0.803093 1.594753,2.127106 2.69336,3.548828 0.415264,0.537407 2.1871,2.355762 2.707031,2.152344 0.277531,-0.108699 1.262841,-0.9952 1.4375,-1.9375 0.03908,-0.211276 0.13821,-1.015956 -0.04102,-1.177735 -0.126728,-0.114557 -1.182231,0.481024 -1.511719,0.34961 -0.570218,-0.835317 -1.269215,-2.289333 -1.873047,-3.294922 -0.958549,-1.735733 -1.708803,-3.8690463 -2.480469,-3.396485 -0.535982,0.328252 -0.839938,0.735983 -0.957031,0.90625 -0.536689,0.780439 -0.790361,1.165703 -1.8125,2.597657 -0.917628,-1.374063 -1.345736,-3.000072 -2.359375,-4.1933595 -0.02683,-0.027591 -0.0537,-0.047359 -0.08008,-0.072266 -0.03024,-0.029858 -0.0561,-0.055197 -0.08789,-0.082031 -0.01357,-0.011393 -0.02751,-0.018759 -0.04102,-0.029297 0.34153,-0.4251716 0.590746,-0.4579783 0.935547,-0.4726562 0.18161,-0.00773 0.388378,0.0035 0.621094,-0.029297 0.232716,-0.032798 0.494316,-0.124714 0.714844,-0.3320313 0.46914,-0.4410357 0.745072,-0.9279571 0.716797,-1.4394531 C 19.592803,6.693582 19.272342,6.2483784 18.80077,5.8769529 18.335336,5.5103629 17.857571,5.3549514 17.433583,5.3886717 Z m 0.07813,0.7460937 c 0.205453,-0.022697 0.454872,0.05355 0.818359,0.3398438 0.374823,0.2952227 0.51906,0.5470582 0.53125,0.7675781 0.01221,0.2205203 -0.09682,0.4943298 -0.472656,0.8476563 -0.09475,0.089076 -0.174707,0.1214816 -0.310547,0.140625 -0.13584,0.019162 -0.322563,0.013875 -0.546875,0.023437 -0.254906,0.010847 -0.57507,0.07663 -0.822266,0.3925782 0.209636,-0.3853266 0.06429,-0.6167591 -0.01172,-0.828125 -0.07013,-0.195001 -0.130214,-0.3527351 -0.146485,-0.4804688 -0.01625,-0.1277329 -0.0093,-0.2280197 0.08008,-0.3984375 0.18977,-0.3617612 0.441384,-0.6529229 0.6875,-0.7539062 0.06153,-0.025246 0.124875,-0.043215 0.19336,-0.050781 z M 6.1621094,18.283203 3.6660156,22.880859 c -0.5203956,0.958443 -1.0406611,2.271446 -0.8984375,2.398438 0.156378,0.139578 1.9383337,-0.669593 2.5625,-1.257813 L 9.6894531,20.625 C 9.1023186,20.483083 8.3238853,20.058806 7.6796875,19.619141 7.0354935,19.179461 6.3668086,18.591575 6.1621094,18.283203 Z"
         style="color:#000000;font-style:normal;font-variant:normal;font-weight:normal;font-stretch:normal;font-size:medium;line-height:normal;font-family:sans-serif;font-variant-ligatures:normal;font-variant-position:normal;font-variant-caps:normal;font-variant-numeric:normal;font-variant-alternates:normal;font-variant-east-asian:normal;font-feature-settings:normal;font-variation-settings:normal;text-indent:0;text-align:start;text-decoration:none;text-decoration-line:none;text-decoration-style:solid;text-decoration-color:#000000;letter-spacing:normal;word-spacing:normal;text-transform:none;writing-mode:lr-tb;direction:ltr;text-orientation:mixed;dominant-baseline:auto;baseline-shift:baseline;text-anchor:start;white-space:normal;shape-padding:0;shape-margin:0;inline-size:0;clip-rule:nonzero;display:inline;overflow:visible;visibility:visible;isolation:auto;mix-blend-mode:normal;color-interpolation:sRGB;color-interpolation-filters:linearRGB;solid-color:#000000;solid-opacity:1;vector-effect:none;fill:#000000;fill-opacity:1;fill-rule:nonzero;stroke:none;stroke-width:2.656;stroke-linecap:butt;stroke-linejoin:miter;stroke-miterlimit:4;stroke-dasharray:none;stroke-dashoffset:0;stroke-opacity:1;paint-order:stroke fill markers;color-rendering:auto;image-rendering:auto;shape-rendering:auto;text-rendering:auto;enable-background:accumulate;stop-color:#000000;stop-opacity:1" />
    </g>
  </g>
</svg>
